Model/Ejercicio3/Main.class
Model/Ejercicio3/Entregable.class
Model/Ejercicio1/Calculadora.class
Model/Ejercicio1/Main.class
Model/Ejercicio2/Persona.class
Model/Ejercicio3/Videojuegos.class
Model/Ejercicio3/Serie.class
Model/Ejercicio2/Main.class
